Training data shape:(432489, 128, 32, 1)
nb_classes: 32
slice_length: 32
weights: weights_song_split_singer60/32_32_0
lr: 0.001
Test score/loss: 2.2095884750428243
Test accuracy: 0.3732281029224396
Test results on each slice:
              precision    recall  f1-score   support

         卓依婷       0.73      0.58      0.65      1660
         叶倩文       0.44      0.49      0.46      1600
         周传雄       0.50      0.45      0.47      1847
         周慧敏       0.56      0.40      0.46      1883
         周杰伦       0.53      0.49      0.51      1712
         孟庭苇       0.27      0.34      0.30      1832
         容祖儿       0.25      0.24      0.25      1408
         张信哲       0.51      0.31      0.39      1858
          张宇       0.51      0.54      0.52      1873
         张敬轩       0.24      0.35      0.28      1988
         李圣杰       0.31      0.35      0.33      1601
         李翊君       0.26      0.26      0.26      1775
         杨千嬅       0.32      0.23      0.27      1530
         林俊杰       0.41      0.38      0.40      1841
         林忆莲       0.35      0.20      0.25      1877
         林志炫       0.23      0.56      0.32      1612
         梁静茹       0.33      0.34      0.33      1785
         梅艳芳       0.42      0.57      0.48      1723
         王力宏       0.37      0.37      0.37      1632
         王心凌       0.47      0.36      0.41      1663
         莫文蔚       0.18      0.11      0.14      1559
         萧亚轩       0.38      0.45      0.41      1525
         蔡依林       0.35      0.26      0.30      1708
         许茹芸       0.21      0.17      0.19      1569
         谢霆锋       0.40      0.28      0.33      1559
         谭咏麟       0.26      0.26      0.26      1669
         邓紫棋       0.31      0.34      0.32      1752
         郑秀文       0.39      0.37      0.38      1783
          阿杜       0.53      0.50      0.51      1779
         陈奕迅       0.26      0.40      0.31      1319
         陈慧娴       0.27      0.20      0.23      1681
         韩宝仪       0.84      0.80      0.82      1506

    accuracy                           0.37     54109
   macro avg       0.39      0.37      0.37     54109
weighted avg       0.39      0.37      0.37     54109


 Scores when pooling song slices:
              precision    recall  f1-score   support

         卓依婷       1.00      0.86      0.92         7
         叶倩文       1.00      0.86      0.92         7
         周传雄       0.83      0.71      0.77         7
         周慧敏       0.86      0.86      0.86         7
         周杰伦       1.00      0.86      0.92         7
         孟庭苇       0.50      0.86      0.63         7
         容祖儿       0.62      0.71      0.67         7
         张信哲       1.00      0.71      0.83         7
          张宇       0.88      1.00      0.93         7
         张敬轩       1.00      0.71      0.83         7
         李圣杰       0.78      1.00      0.88         7
         李翊君       0.60      0.86      0.71         7
         杨千嬅       0.80      0.57      0.67         7
         林俊杰       0.75      0.86      0.80         7
         林忆莲       0.67      0.29      0.40         7
         林志炫       0.64      1.00      0.78         7
         梁静茹       1.00      0.86      0.92         7
         梅艳芳       0.56      0.71      0.63         7
         王力宏       0.86      0.86      0.86         7
         王心凌       1.00      0.86      0.92         7
         莫文蔚       0.50      0.14      0.22         7
         萧亚轩       0.70      1.00      0.82         7
         蔡依林       0.50      0.57      0.53         7
         许茹芸       0.60      0.43      0.50         7
         谢霆锋       1.00      0.71      0.83         7
         谭咏麟       0.60      0.43      0.50         7
         邓紫棋       0.55      0.86      0.67         7
         郑秀文       0.64      1.00      0.78         7
          阿杜       1.00      0.86      0.92         7
         陈奕迅       0.75      0.86      0.80         7
         陈慧娴       0.67      0.29      0.40         7
         韩宝仪       1.00      1.00      1.00         7

    accuracy                           0.75       224
   macro avg       0.78      0.75      0.74       224
weighted avg       0.78      0.75      0.74       224
