Training data shape:(444726, 128, 32, 1)
nb_classes: 32
slice_length: 32
weights: weights_song_split_singer32/32_32_0
lr: 0.001
Test score/loss: 2.3879806632313847
Test accuracy: 0.3389599323272705
Test results on each slice:
              precision    recall  f1-score   support

         周华健       0.28      0.40      0.33      1910
         周杰伦       0.48      0.39      0.43      1770
          周深       0.20      0.30      0.24      1712
         孙燕姿       0.58      0.50      0.54      1603
         容祖儿       0.25      0.29      0.27      1703
         张国荣       0.40      0.29      0.33      1638
         张惠妹       0.41      0.54      0.46      1813
          张杰       0.22      0.19      0.20      1669
         張信哲       0.37      0.26      0.30      1999
         李克勤       0.31      0.33      0.32      1695
         杨丞琳       0.60      0.28      0.38      1703
         杨宗纬       0.37      0.45      0.40      1747
         杨钰莹       0.39      0.41      0.40      1538
         林俊杰       0.54      0.21      0.30      1992
         林宥嘉       0.26      0.51      0.35      1821
         王力宏       0.35      0.32      0.34      1744
         王心凌       0.55      0.37      0.45      1824
          王菲       0.22      0.43      0.29      1785
         罗志祥       0.41      0.39      0.40      1620
          肖战       0.25      0.20      0.22      1567
          苏芮       0.33      0.27      0.30      1833
         萧亚轩       0.41      0.22      0.29      1596
         蔡依林       0.26      0.19      0.22      1996
         薛之谦       0.14      0.21      0.17      1871
         谭咏麟       0.52      0.47      0.50      1904
         费玉清       0.47      0.28      0.35      1480
         邓丽君       0.45      0.36      0.40      1672
         邓紫棋       0.35      0.32      0.34      1648
         陈奕迅       0.21      0.24      0.23      1827
          陈瑞       0.43      0.65      0.52      1897
         高凌风       0.52      0.47      0.50      1310
         黄品源       0.24      0.13      0.17      1801

    accuracy                           0.34     55688
   macro avg       0.37      0.34      0.34     55688
weighted avg       0.36      0.34      0.34     55688


 Scores when pooling song slices:
              precision    recall  f1-score   support

         周华健       0.55      0.86      0.67         7
         周杰伦       0.86      0.86      0.86         7
          周深       0.42      0.71      0.53         7
         孙燕姿       0.80      0.57      0.67         7
         容祖儿       1.00      0.43      0.60         7
         张国荣       1.00      0.43      0.60         7
         张惠妹       0.70      1.00      0.82         7
          张杰       0.40      0.29      0.33         7
         張信哲       0.80      0.57      0.67         7
         李克勤       1.00      0.71      0.83         7
         杨丞琳       1.00      0.57      0.73         7
         杨宗纬       0.78      1.00      0.88         7
         杨钰莹       0.64      1.00      0.78         7
         林俊杰       1.00      0.88      0.93         8
         林宥嘉       0.39      1.00      0.56         7
         王力宏       0.71      0.71      0.71         7
         王心凌       0.64      0.88      0.74         8
          王菲       0.60      0.86      0.71         7
         罗志祥       0.62      0.71      0.67         7
          肖战       0.50      0.29      0.36         7
          苏芮       0.67      0.57      0.62         7
         萧亚轩       0.57      0.57      0.57         7
         蔡依林       0.60      0.38      0.46         8
         薛之谦       0.60      0.43      0.50         7
         谭咏麟       0.78      1.00      0.88         7
         费玉清       1.00      0.57      0.73         7
         邓丽君       0.83      0.71      0.77         7
         邓紫棋       1.00      0.57      0.73         7
         陈奕迅       0.83      0.71      0.77         7
          陈瑞       0.64      1.00      0.78         7
         高凌风       1.00      0.86      0.92         7
         黄品源       1.00      0.43      0.60         7

    accuracy                           0.69       227
   macro avg       0.75      0.69      0.69       227
weighted avg       0.75      0.69      0.69       227
